/home/littledarkbug/NetBeansProjects/boutique-client/src/main/java/tg/univ/cic/boutique/client/Categorie.java
/home/littledarkbug/NetBeansProjects/boutique-client/src/main/java/tg/univ/cic/boutique/client/Produit.java
/home/littledarkbug/NetBeansProjects/boutique-client/src/main/java/tg/univ/cic/boutique/client/Main.java
